PCBNEW-LibModule-V1  
# encoding utf-8
Units mm
$INDEX
TRACO_THN_15WI
$EndINDEX
$MODULE TRACO_THN_15WI
Po 0 0 0 15 00000000 00000000 ~~
Li TRACO_THN_15WI
Cd 
Sc 00000000
At STD
Op 0 0 0
.SolderMask 0
.SolderPaste 0
T0 -10.16 -14.605 1 1 0 0.05 N V 21 "TRACO_THN_15WI"
T1 0 0 1 0.9 0 0.05 N H 21 "VAL**"
DS -12.7 12.7 -12.7 -12.7 0.127 21
DS -12.7 -12.7 10.16 -12.7 0.127 21
DS 10.16 -12.7 12.7 -12.7 0.127 21
DS 12.7 -12.7 12.7 -10.16 0.127 21
DS 12.7 -10.16 12.7 12.7 0.127 21
DS 12.7 12.7 -12.7 12.7 0.127 21
DS 10.16 -12.7 12.7 -10.16 0.127 21
$PAD
Sh "GND" C 2.032 2.032 0 0 0
Dr 1 0 0
At STD N 00C0FFFF
.SolderMask 0
Ne 0 ""
Po 2.54 -10.16
$EndPAD
$PAD
Sh "VCC" C 2.032 2.032 0 0 0
Dr 1 0 0
At STD N 00C0FFFF
.SolderMask 0
Ne 0 ""
Po -2.54 -10.16
$EndPAD
$PAD
Sh "ON_OFF" C 2.032 2.032 0 0 0
Dr 1 0 0
At STD N 00C0FFFF
.SolderMask 0
Ne 0 ""
Po 10.16 -10.16
$EndPAD
$PAD
Sh "VOUT" C 2.032 2.032 0 0 0
Dr 1 0 0
At STD N 00C0FFFF
.SolderMask 0
Ne 0 ""
Po -10.16 10.16
$EndPAD
$PAD
Sh "TRIM" C 2.032 2.032 0 0 0
Dr 1 0 0
At STD N 00C0FFFF
.SolderMask 0
Ne 0 ""
Po 0 10.16
$EndPAD
$PAD
Sh "DGND" C 2.032 2.032 0 0 0
Dr 1 0 0
At STD N 00C0FFFF
.SolderMask 0
Ne 0 ""
Po 10.16 10.16
$EndPAD
$EndMODULE TRACO_THN_15WI
