(module slepka (layer F.Cu) (tedit 0)
  (fp_text reference G*** (at 0 0) (layer F.SilkS) hide
    (effects (font (size 1.524 1.524) (thickness 0.3)))
  )
  (fp_text value LOGO (at 0.75 0) (layer F.SilkS) hide
    (effects (font (size 1.524 1.524) (thickness 0.3)))
  )
  (fp_poly (pts (xy -1.140197 -1.181304) (xy -1.117618 -1.16039) (xy -1.104608 -1.109354) (xy -1.09967 -1.014957)
    (xy -1.101304 -0.863961) (xy -1.108015 -0.64313) (xy -1.109045 -0.612633) (xy -1.121633 -0.342662)
    (xy -1.139334 -0.151306) (xy -1.163724 -0.032587) (xy -1.196382 0.019473) (xy -1.238884 0.010852)
    (xy -1.266256 -0.016656) (xy -1.288074 -0.069437) (xy -1.299375 -0.169694) (xy -1.300557 -0.32865)
    (xy -1.292019 -0.557533) (xy -1.288126 -0.632283) (xy -1.274989 -0.857901) (xy -1.26262 -1.012301)
    (xy -1.248256 -1.108857) (xy -1.229133 -1.160945) (xy -1.202486 -1.181938) (xy -1.173842 -1.185333)
    (xy -1.140197 -1.181304)) (layer F.SilkS) (width 0.01))
  (fp_poly (pts (xy 0.23825 -1.109653) (xy 0.256219 -1.064673) (xy 0.267001 -0.974236) (xy 0.272025 -0.825683)
    (xy 0.272719 -0.606356) (xy 0.272613 -0.581646) (xy 0.26741 -0.316857) (xy 0.253811 -0.131198)
    (xy 0.230492 -0.019429) (xy 0.196128 0.023692) (xy 0.149396 0.003405) (xy 0.130046 -0.017497)
    (xy 0.107625 -0.087149) (xy 0.09685 -0.214196) (xy 0.096311 -0.379563) (xy 0.104597 -0.564177)
    (xy 0.120299 -0.748965) (xy 0.142008 -0.914854) (xy 0.168313 -1.042769) (xy 0.197805 -1.113636)
    (xy 0.211667 -1.121833) (xy 0.23825 -1.109653)) (layer F.SilkS) (width 0.01))
  (fp_poly (pts (xy 0.49113 -5.722788) (xy 0.497778 -5.721016) (xy 0.643777 -5.670499) (xy 0.774956 -5.606773)
    (xy 0.805637 -5.587072) (xy 0.914073 -5.469179) (xy 1.001195 -5.300171) (xy 1.051951 -5.11337)
    (xy 1.058982 -5.026227) (xy 1.066991 -4.902043) (xy 1.095295 -4.840887) (xy 1.152527 -4.843121)
    (xy 1.247315 -4.90911) (xy 1.38829 -5.039217) (xy 1.389235 -5.040135) (xy 1.577659 -5.201758)
    (xy 1.785142 -5.344272) (xy 1.99147 -5.456397) (xy 2.176425 -5.526852) (xy 2.29511 -5.545633)
    (xy 2.393251 -5.518698) (xy 2.509079 -5.451202) (xy 2.616931 -5.363179) (xy 2.69114 -5.274662)
    (xy 2.709334 -5.222292) (xy 2.731316 -5.144599) (xy 2.77877 -5.055715) (xy 2.840619 -4.923212)
    (xy 2.896442 -4.736897) (xy 2.939015 -4.527617) (xy 2.961111 -4.326217) (xy 2.962672 -4.27063)
    (xy 2.963334 -4.075092) (xy 3.377329 -4.285338) (xy 3.590302 -4.388657) (xy 3.757208 -4.455913)
    (xy 3.903886 -4.495738) (xy 4.056175 -4.516768) (xy 4.074568 -4.51832) (xy 4.27988 -4.522098)
    (xy 4.429619 -4.486671) (xy 4.543897 -4.399643) (xy 4.642822 -4.248622) (xy 4.697782 -4.13422)
    (xy 4.790243 -3.905779) (xy 4.838475 -3.7162) (xy 4.84622 -3.534582) (xy 4.817223 -3.330023)
    (xy 4.803124 -3.264844) (xy 4.737149 -3.041954) (xy 4.643109 -2.860121) (xy 4.56541 -2.753442)
    (xy 4.483016 -2.645006) (xy 4.432163 -2.56817) (xy 4.42372 -2.54) (xy 4.473594 -2.5559)
    (xy 4.579286 -2.597888) (xy 4.719363 -2.657393) (xy 4.741334 -2.667) (xy 4.919962 -2.737915)
    (xy 5.074895 -2.776804) (xy 5.248569 -2.792308) (xy 5.364926 -2.794) (xy 5.536006 -2.791705)
    (xy 5.646564 -2.780538) (xy 5.720707 -2.754073) (xy 5.782546 -2.705886) (xy 5.813747 -2.674397)
    (xy 5.916851 -2.53252) (xy 5.979503 -2.355828) (xy 6.006896 -2.126118) (xy 6.009031 -1.989946)
    (xy 5.983934 -1.705117) (xy 5.908603 -1.475289) (xy 5.774989 -1.282056) (xy 5.647355 -1.162674)
    (xy 5.478373 -1.043036) (xy 5.308834 -0.97039) (xy 5.160899 -0.934745) (xy 4.995087 -0.892249)
    (xy 4.789482 -0.824817) (xy 4.580354 -0.744696) (xy 4.513738 -0.71623) (xy 4.329081 -0.635391)
    (xy 4.206495 -0.584787) (xy 4.130833 -0.559924) (xy 4.086952 -0.556306) (xy 4.059705 -0.569438)
    (xy 4.049889 -0.578556) (xy 4.022779 -0.636443) (xy 4.062502 -0.697562) (xy 4.175181 -0.768547)
    (xy 4.265084 -0.811763) (xy 4.482589 -0.90959) (xy 4.644044 -0.97929) (xy 4.770129 -1.028525)
    (xy 4.881525 -1.064957) (xy 4.998912 -1.096247) (xy 5.093515 -1.118684) (xy 5.368753 -1.210495)
    (xy 5.57469 -1.345128) (xy 5.71799 -1.528021) (xy 5.782403 -1.680663) (xy 5.82936 -1.924552)
    (xy 5.821257 -2.164571) (xy 5.760999 -2.376497) (xy 5.683929 -2.501717) (xy 5.623067 -2.569534)
    (xy 5.567485 -2.60615) (xy 5.491774 -2.617908) (xy 5.370523 -2.611154) (xy 5.28073 -2.602402)
    (xy 5.127881 -2.579547) (xy 4.967214 -2.537908) (xy 4.779162 -2.471038) (xy 4.544163 -2.372489)
    (xy 4.433876 -2.323314) (xy 4.221636 -2.224543) (xy 4.025876 -2.127967) (xy 3.865371 -2.043228)
    (xy 3.758895 -1.979966) (xy 3.742334 -1.968193) (xy 3.613925 -1.894964) (xy 3.48953 -1.864257)
    (xy 3.393896 -1.879997) (xy 3.363563 -1.908134) (xy 3.370179 -1.972525) (xy 3.441424 -2.062504)
    (xy 3.565739 -2.166736) (xy 3.731561 -2.273885) (xy 3.743543 -2.280704) (xy 3.868879 -2.366452)
    (xy 4.024363 -2.494363) (xy 4.184487 -2.642799) (xy 4.255518 -2.714999) (xy 4.400423 -2.873148)
    (xy 4.496314 -2.995218) (xy 4.556776 -3.102136) (xy 4.595396 -3.21483) (xy 4.604768 -3.252954)
    (xy 4.644535 -3.461697) (xy 4.65081 -3.629482) (xy 4.621485 -3.793988) (xy 4.564919 -3.964983)
    (xy 4.473343 -4.168063) (xy 4.369891 -4.29402) (xy 4.239627 -4.350341) (xy 4.067614 -4.344514)
    (xy 3.893912 -4.301358) (xy 3.731817 -4.242373) (xy 3.545423 -4.159716) (xy 3.357345 -4.06514)
    (xy 3.190199 -3.970397) (xy 3.066598 -3.887241) (xy 3.02409 -3.849302) (xy 2.962827 -3.771486)
    (xy 2.884031 -3.651792) (xy 2.781057 -3.479477) (xy 2.647258 -3.243799) (xy 2.627375 -3.208166)
    (xy 2.551781 -3.097323) (xy 2.472651 -3.017055) (xy 2.45432 -3.005125) (xy 2.359981 -2.980329)
    (xy 2.297529 -3.01027) (xy 2.286 -3.050386) (xy 2.305457 -3.121422) (xy 2.35603 -3.242124)
    (xy 2.426024 -3.38911) (xy 2.503746 -3.539001) (xy 2.5775 -3.668416) (xy 2.63559 -3.753975)
    (xy 2.641148 -3.760399) (xy 2.684144 -3.819537) (xy 2.712012 -3.895778) (xy 2.728625 -4.008959)
    (xy 2.737858 -4.178915) (xy 2.740382 -4.268399) (xy 2.743379 -4.461927) (xy 2.737291 -4.599775)
    (xy 2.716221 -4.710869) (xy 2.674273 -4.824134) (xy 2.605551 -4.968497) (xy 2.592215 -4.995333)
    (xy 2.512101 -5.151476) (xy 2.452912 -5.246762) (xy 2.399839 -5.297092) (xy 2.338077 -5.318367)
    (xy 2.286 -5.324167) (xy 2.149092 -5.302821) (xy 1.977861 -5.230647) (xy 1.792792 -5.121348)
    (xy 1.614369 -4.98863) (xy 1.463077 -4.846195) (xy 1.359401 -4.707751) (xy 1.356412 -4.702262)
    (xy 1.32365 -4.613497) (xy 1.283264 -4.465098) (xy 1.240349 -4.281133) (xy 1.200001 -4.085675)
    (xy 1.167312 -3.902794) (xy 1.147379 -3.756561) (xy 1.143663 -3.697046) (xy 1.135283 -3.579909)
    (xy 1.117304 -3.495963) (xy 1.062506 -3.443944) (xy 0.980747 -3.429329) (xy 0.917477 -3.459686)
    (xy 0.915695 -3.462389) (xy 0.911394 -3.515854) (xy 0.915802 -3.634559) (xy 0.927896 -3.799639)
    (xy 0.942101 -3.949364) (xy 0.962923 -4.220385) (xy 0.962021 -4.459742) (xy 0.936767 -4.698004)
    (xy 0.884531 -4.965742) (xy 0.838274 -5.15668) (xy 0.752828 -5.343854) (xy 0.615802 -5.47268)
    (xy 0.442953 -5.536135) (xy 0.250038 -5.527194) (xy 0.118243 -5.477638) (xy -0.043762 -5.369539)
    (xy -0.219155 -5.214539) (xy -0.381374 -5.039379) (xy -0.503857 -4.8708) (xy -0.528213 -4.826839)
    (xy -0.574096 -4.727265) (xy -0.599901 -4.637176) (xy -0.608473 -4.530998) (xy -0.602656 -4.383157)
    (xy -0.592317 -4.250354) (xy -0.559668 -3.993621) (xy -0.510288 -3.774874) (xy -0.470495 -3.662889)
    (xy -0.405013 -3.497701) (xy -0.384905 -3.396667) (xy -0.409767 -3.352717) (xy -0.452791 -3.351951)
    (xy -0.536798 -3.40776) (xy -0.617667 -3.532293) (xy -0.690123 -3.709633) (xy -0.748893 -3.923864)
    (xy -0.788705 -4.15907) (xy -0.804284 -4.399334) (xy -0.804333 -4.412968) (xy -0.794558 -4.611062)
    (xy -0.758965 -4.769322) (xy -0.694341 -4.918873) (xy -0.530256 -5.166749) (xy -0.305686 -5.398182)
    (xy -0.044549 -5.590056) (xy 0.060521 -5.648406) (xy 0.19923 -5.714921) (xy 0.295847 -5.745938)
    (xy 0.382453 -5.746784) (xy 0.49113 -5.722788)) (layer F.SilkS) (width 0.01))
  (fp_poly (pts (xy 4.182671 -0.432825) (xy 4.211419 -0.389627) (xy 4.238427 -0.302647) (xy 4.267211 -0.159623)
    (xy 4.301287 0.051703) (xy 4.312585 0.127) (xy 4.356731 0.378782) (xy 4.410856 0.617947)
    (xy 4.46903 0.821402) (xy 4.525324 0.966051) (xy 4.530709 0.976556) (xy 4.61295 1.094672)
    (xy 4.750722 1.251258) (xy 4.93155 1.434346) (xy 5.142962 1.631971) (xy 5.372485 1.832162)
    (xy 5.607645 2.022954) (xy 5.676312 2.075724) (xy 5.931984 2.281713) (xy 6.140645 2.474891)
    (xy 6.296392 2.648373) (xy 6.393321 2.795274) (xy 6.425529 2.908708) (xy 6.419315 2.94228)
    (xy 6.368015 3.001111) (xy 6.297112 2.986871) (xy 6.219323 2.904746) (xy 6.185404 2.846917)
    (xy 6.127928 2.748718) (xy 6.054812 2.655487) (xy 5.95351 2.55525) (xy 5.811481 2.436037)
    (xy 5.61618 2.285875) (xy 5.531172 2.222496) (xy 5.254879 2.006724) (xy 4.996241 1.784143)
    (xy 4.76453 1.564379) (xy 4.569024 1.357058) (xy 4.418996 1.171806) (xy 4.323723 1.018249)
    (xy 4.295583 0.940157) (xy 4.271177 0.839971) (xy 4.230605 0.692976) (xy 4.188474 0.550333)
    (xy 4.14612 0.377936) (xy 4.115236 0.186207) (xy 4.09653 -0.007147) (xy 4.090712 -0.184419)
    (xy 4.09849 -0.327901) (xy 4.120573 -0.419886) (xy 4.148667 -0.4445) (xy 4.182671 -0.432825)) (layer F.SilkS) (width 0.01))
  (fp_poly (pts (xy 0.250328 -3.198957) (xy 0.402108 -3.177847) (xy 0.525878 -3.14964) (xy 0.601784 -3.117763)
    (xy 0.613813 -3.0903) (xy 0.637202 -3.08159) (xy 0.720005 -3.096496) (xy 0.789971 -3.115666)
    (xy 1.129741 -3.176153) (xy 1.467176 -3.157277) (xy 1.795133 -3.064207) (xy 2.106469 -2.90211)
    (xy 2.394039 -2.676153) (xy 2.650701 -2.391506) (xy 2.86931 -2.053334) (xy 3.042724 -1.666806)
    (xy 3.117155 -1.432164) (xy 3.156911 -1.224415) (xy 3.182317 -0.962432) (xy 3.192973 -0.674418)
    (xy 3.188479 -0.388575) (xy 3.168435 -0.133105) (xy 3.138078 0.042333) (xy 2.996159 0.468102)
    (xy 2.794354 0.855683) (xy 2.540418 1.194715) (xy 2.242104 1.474836) (xy 1.909234 1.68466)
    (xy 1.748399 1.760927) (xy 1.622896 1.807404) (xy 1.500206 1.831342) (xy 1.347811 1.839991)
    (xy 1.208696 1.840834) (xy 1.004792 1.836451) (xy 0.85366 1.820269) (xy 0.723618 1.786481)
    (xy 0.582984 1.729281) (xy 0.5715 1.724057) (xy 0.444384 1.669074) (xy 0.3903 1.65394)
    (xy 0.407768 1.678291) (xy 0.418055 1.686573) (xy 0.51861 1.7652) (xy 0.354555 1.792301)
    (xy 0.201402 1.810079) (xy 0.032168 1.819462) (xy 0.000449 1.819867) (xy -0.073875 1.827131)
    (xy -0.221373 1.847728) (xy -0.433207 1.880124) (xy -0.700534 1.922785) (xy -1.014512 1.974177)
    (xy -1.366302 2.032766) (xy -1.747062 2.097018) (xy -2.14795 2.165399) (xy -2.560127 2.236373)
    (xy -2.974749 2.308408) (xy -3.382977 2.37997) (xy -3.775969 2.449523) (xy -4.144885 2.515533)
    (xy -4.480882 2.576468) (xy -4.77512 2.630791) (xy -5.018758 2.676971) (xy -5.202955 2.713471)
    (xy -5.318869 2.738758) (xy -5.355166 2.749199) (xy -5.384963 2.771874) (xy -5.347239 2.785159)
    (xy -5.234144 2.791313) (xy -5.207 2.79181) (xy -4.947246 2.796691) (xy -4.633893 2.804138)
    (xy -4.274533 2.813862) (xy -3.87676 2.825579) (xy -3.448165 2.839) (xy -2.996341 2.853839)
    (xy -2.528881 2.86981) (xy -2.053377 2.886625) (xy -1.577422 2.903999) (xy -1.108609 2.921645)
    (xy -0.654529 2.939275) (xy -0.222775 2.956603) (xy 0.17906 2.973343) (xy 0.543383 2.989208)
    (xy 0.862602 3.003911) (xy 1.129125 3.017165) (xy 1.335359 3.028685) (xy 1.473711 3.038182)
    (xy 1.536589 3.045371) (xy 1.539469 3.046535) (xy 1.560811 3.071427) (xy 1.568157 3.092831)
    (xy 1.556433 3.110786) (xy 1.520567 3.125332) (xy 1.455487 3.13651) (xy 1.356121 3.144361)
    (xy 1.217396 3.148924) (xy 1.03424 3.15024) (xy 0.801582 3.14835) (xy 0.514347 3.143293)
    (xy 0.167465 3.135109) (xy -0.244137 3.12384) (xy -0.725532 3.109525) (xy -1.281792 3.092206)
    (xy -1.865687 3.073599) (xy -2.391055 3.05699) (xy -2.891665 3.041631) (xy -3.361112 3.027689)
    (xy -3.792989 3.015332) (xy -4.18089 3.004729) (xy -4.51841 2.996049) (xy -4.799142 2.989459)
    (xy -5.01668 2.985129) (xy -5.164618 2.983227) (xy -5.236551 2.983922) (xy -5.242571 2.984793)
    (xy -5.246994 2.991399) (xy -5.243333 2.998795) (xy -5.22612 3.008274) (xy -5.189888 3.021131)
    (xy -5.129167 3.038659) (xy -5.03849 3.062152) (xy -4.912388 3.092903) (xy -4.745394 3.132206)
    (xy -4.532039 3.181355) (xy -4.266856 3.241643) (xy -3.944376 3.314364) (xy -3.55913 3.400812)
    (xy -3.105652 3.502281) (xy -2.578472 3.620064) (xy -2.203503 3.703793) (xy -1.717501 3.812719)
    (xy -1.255511 3.917064) (xy -0.824211 4.015269) (xy -0.430277 4.105777) (xy -0.080388 4.187028)
    (xy 0.218778 4.257466) (xy 0.460545 4.31553) (xy 0.638234 4.359664) (xy 0.745167 4.388308)
    (xy 0.775192 4.398925) (xy 0.794116 4.460269) (xy 0.751454 4.511368) (xy 0.685418 4.525047)
    (xy 0.634038 4.51526) (xy 0.506257 4.488247) (xy 0.308272 4.44538) (xy 0.046281 4.388029)
    (xy -0.273516 4.317565) (xy -0.644924 4.235358) (xy -1.061743 4.14278) (xy -1.517775 4.041202)
    (xy -2.006824 3.931993) (xy -2.52269 3.816526) (xy -2.8575 3.741447) (xy -3.38775 3.622455)
    (xy -3.895554 3.508496) (xy -4.374658 3.400974) (xy -4.818807 3.301293) (xy -5.221745 3.210858)
    (xy -5.577217 3.131071) (xy -5.878969 3.063337) (xy -6.120745 3.00906) (xy -6.29629 2.969644)
    (xy -6.399349 2.946493) (xy -6.424083 2.940927) (xy -6.501676 2.892965) (xy -6.518694 2.81982)
    (xy -6.475136 2.754411) (xy -6.424083 2.73339) (xy -6.367206 2.72292) (xy -6.233938 2.699155)
    (xy -6.0313 2.663329) (xy -5.766312 2.616673) (xy -5.445995 2.560419) (xy -5.077369 2.495799)
    (xy -4.667454 2.424046) (xy -4.223271 2.346392) (xy -3.75184 2.264069) (xy -3.450229 2.211448)
    (xy -0.571624 1.709396) (xy -0.804395 1.559455) (xy -0.833899 1.536134) (xy 0.218491 1.536134)
    (xy 0.228791 1.559792) (xy 0.271416 1.605239) (xy 0.295921 1.595916) (xy 0.296334 1.589998)
    (xy 0.266265 1.554192) (xy 0.247459 1.541124) (xy 0.218491 1.536134) (xy -0.833899 1.536134)
    (xy -1.136382 1.297041) (xy -1.413675 0.978827) (xy -1.634516 0.615089) (xy -1.797152 0.216101)
    (xy -1.899826 -0.207862) (xy -1.931971 -0.552159) (xy -1.606009 -0.552159) (xy -1.590673 -0.273285)
    (xy -1.557164 -0.037312) (xy -1.544844 0.015575) (xy -1.416051 0.390862) (xy -1.239632 0.725579)
    (xy -1.023461 1.011922) (xy -0.775412 1.242088) (xy -0.50336 1.408272) (xy -0.215179 1.502671)
    (xy -0.02504 1.521818) (xy 0.182754 1.524) (xy -0.078341 1.252096) (xy -0.346577 0.913397)
    (xy -0.554871 0.525004) (xy -0.700731 0.099417) (xy -0.781667 -0.350866) (xy -0.789354 -0.613833)
    (xy -0.465666 -0.613833) (xy -0.432325 -0.153979) (xy -0.334656 0.267372) (xy -0.176198 0.644037)
    (xy 0.039514 0.969835) (xy 0.308945 1.238583) (xy 0.628557 1.444098) (xy 0.740834 1.495491)
    (xy 0.930512 1.543916) (xy 1.167387 1.560268) (xy 1.420951 1.546094) (xy 1.660695 1.502944)
    (xy 1.8415 1.439625) (xy 2.103618 1.271315) (xy 2.347389 1.033664) (xy 2.561748 0.741683)
    (xy 2.735632 0.410383) (xy 2.855662 0.063727) (xy 2.895262 -0.160378) (xy 2.916071 -0.435377)
    (xy 2.91809 -0.729609) (xy 2.901318 -1.011411) (xy 2.865756 -1.249123) (xy 2.855662 -1.291394)
    (xy 2.730774 -1.649235) (xy 2.55384 -1.981938) (xy 2.335939 -2.274454) (xy 2.088148 -2.511731)
    (xy 1.8415 -2.669189) (xy 1.723199 -2.720535) (xy 1.607058 -2.751849) (xy 1.465917 -2.767719)
    (xy 1.272613 -2.77273) (xy 1.227667 -2.772833) (xy 0.938317 -2.757939) (xy 0.703201 -2.706019)
    (xy 0.496392 -2.606216) (xy 0.291964 -2.447673) (xy 0.169334 -2.329664) (xy -0.093868 -2.003741)
    (xy -0.287102 -1.630238) (xy -0.410292 -1.209357) (xy -0.463363 -0.741305) (xy -0.465666 -0.613833)
    (xy -0.789354 -0.613833) (xy -0.795187 -0.813346) (xy -0.738801 -1.275526) (xy -0.649457 -1.613476)
    (xy -0.542305 -1.879596) (xy -0.399715 -2.150976) (xy -0.236717 -2.403456) (xy -0.068341 -2.612879)
    (xy 0.033981 -2.712042) (xy 0.1905 -2.844236) (xy -0.0635 -2.826205) (xy -0.26661 -2.794074)
    (xy -0.467826 -2.734007) (xy -0.529166 -2.708026) (xy -0.788438 -2.543278) (xy -1.030391 -2.309068)
    (xy -1.243976 -2.020368) (xy -1.418144 -1.692151) (xy -1.541846 -1.339389) (xy -1.543329 -1.333728)
    (xy -1.582302 -1.113627) (xy -1.603207 -0.842688) (xy -1.606009 -0.552159) (xy -1.931971 -0.552159)
    (xy -1.940782 -0.646525) (xy -1.918266 -1.089612) (xy -1.830521 -1.526849) (xy -1.675792 -1.94796)
    (xy -1.467321 -2.32049) (xy -1.203792 -2.648793) (xy -0.907986 -2.899833) (xy 0.254 -2.899833)
    (xy 0.275167 -2.878667) (xy 0.296334 -2.899833) (xy 0.275167 -2.921) (xy 0.254 -2.899833)
    (xy -0.907986 -2.899833) (xy -0.902482 -2.904504) (xy -0.754056 -2.9845) (xy 0.381 -2.9845)
    (xy 0.402167 -2.963333) (xy 0.423334 -2.9845) (xy 0.402167 -3.005667) (xy 0.381 -2.9845)
    (xy -0.754056 -2.9845) (xy -0.675511 -3.026833) (xy 0.465667 -3.026833) (xy 0.486834 -3.005667)
    (xy 0.508 -3.026833) (xy 0.486834 -3.048) (xy 0.465667 -3.026833) (xy -0.675511 -3.026833)
    (xy -0.567415 -3.085092) (xy -0.202621 -3.188025) (xy -0.057831 -3.206187) (xy 0.090397 -3.209546)
    (xy 0.250328 -3.198957)) (layer F.SilkS) (width 0.01))
  (fp_poly (pts (xy 0.782806 4.857137) (xy 0.862437 4.931307) (xy 0.934379 5.019644) (xy 0.972429 5.093285)
    (xy 0.973667 5.103585) (xy 1.008094 5.170226) (xy 1.099001 5.260516) (xy 1.227822 5.358902)
    (xy 1.375993 5.44983) (xy 1.405328 5.465249) (xy 1.523892 5.544074) (xy 1.558662 5.616638)
    (xy 1.55794 5.621489) (xy 1.515865 5.690641) (xy 1.42729 5.693821) (xy 1.289719 5.630804)
    (xy 1.227195 5.591522) (xy 1.076859 5.488929) (xy 0.974815 5.407413) (xy 0.897067 5.32398)
    (xy 0.819616 5.215634) (xy 0.793711 5.176157) (xy 0.718456 5.038454) (xy 0.681276 4.923134)
    (xy 0.685653 4.847126) (xy 0.721688 4.826) (xy 0.782806 4.857137)) (layer F.SilkS) (width 0.01))
)
