(module LED_1W_3W_R8_THERMAL (layer F.Cu) (tedit 5A9960A2)
  (descr https://www.gme.cz/data/attachments/dsh.518-234.1.pdf)
  (tags "LED 1W 3W 5W")
  (attr smd)
  (fp_text reference REF** (at -5.08 -3.81) (layer F.SilkS)
    (effects (font (size 1 1) (thickness 0.15)))
  )
  (fp_text value LED_1W_3W_R8 (at 0 5.08) (layer F.Fab)
    (effects (font (size 1 1) (thickness 0.15)))
  )
  (fp_line (start 0 2.286) (end 0 3.556) (layer F.Cu) (width 0.6))
  (fp_line (start 0 3.556) (end 2.54 3.556) (layer F.Cu) (width 0.6))
  (fp_line (start 2.54 3.556) (end 2.54 -3.81) (layer F.Cu) (width 0.6))
  (fp_line (start 2.54 -3.81) (end 0 -3.81) (layer F.Cu) (width 0.6))
  (fp_line (start 0 -3.81) (end 0 -1.27) (layer F.Cu) (width 0.6))
  (fp_line (start 0 -1.27) (end 0 -3.81) (layer F.Cu) (width 0.6))
  (fp_line (start 0 -3.81) (end -2.54 -3.81) (layer F.Cu) (width 0.6))
  (fp_line (start -2.54 -3.81) (end -2.54 4.572) (layer F.Cu) (width 0.6))
  (fp_line (start -2.54 4.572) (end -1.016 4.572) (layer F.Cu) (width 0.6))
  (fp_line (start -1.016 4.572) (end -1.016 4.064) (layer F.Cu) (width 0.6))
  (fp_line (start -1.016 4.064) (end -2.286 4.064) (layer F.Cu) (width 0.6))
  (fp_line (start -2.286 4.064) (end -2.286 3.556) (layer F.Cu) (width 0.6))
  (fp_line (start -2.286 3.556) (end -0.254 3.556) (layer F.Cu) (width 0.6))
  (fp_line (start -0.254 3.556) (end 0 3.556) (layer F.Cu) (width 0.6))
  (fp_line (start 0 3.556) (end 1.016 3.556) (layer F.Cu) (width 0.6))
  (fp_line (start 1.016 3.556) (end 2.54 2.794) (layer F.Cu) (width 0.6))
  (fp_line (start 2.54 2.794) (end 2.54 -2.794) (layer F.Cu) (width 0.6))
  (fp_line (start 2.54 -2.794) (end 1.27 -3.556) (layer F.Cu) (width 0.6))
  (fp_line (start 1.27 -3.556) (end -1.27 -3.556) (layer F.Cu) (width 0.6))
  (fp_line (start -1.27 -3.556) (end -2.54 -2.794) (layer F.Cu) (width 0.6))
  (fp_line (start -2.54 -2.794) (end -2.54 2.54) (layer F.Cu) (width 0.6))
  (fp_line (start -2.54 2.54) (end -2.54 2.794) (layer F.Cu) (width 0.6))
  (fp_line (start -2.54 2.794) (end -1.016 3.556) (layer F.Cu) (width 0.6))
  (fp_line (start -1.016 3.556) (end 2.54 3.556) (layer F.Cu) (width 0.6))
  (fp_line (start 2.54 3.556) (end 2.54 3.048) (layer F.Cu) (width 0.6))
  (fp_line (start 2.54 3.048) (end 6.858 3.048) (layer F.Cu) (width 0.6))
  (fp_line (start 6.858 3.048) (end 6.858 2.54) (layer F.Cu) (width 0.6))
  (fp_line (start 6.858 2.54) (end 2.794 2.54) (layer F.Cu) (width 0.6))
  (fp_line (start 2.794 2.54) (end 2.794 2.032) (layer F.Cu) (width 0.6))
  (fp_line (start 2.794 2.032) (end 7.62 2.032) (layer F.Cu) (width 0.6))
  (fp_line (start 7.62 2.032) (end 7.62 1.778) (layer F.Cu) (width 0.6))
  (fp_line (start 7.62 1.778) (end 2.54 1.778) (layer F.Cu) (width 0.6))
  (fp_line (start 2.54 1.778) (end 2.54 -3.81) (layer F.Cu) (width 0.6))
  (fp_line (start 2.54 -3.81) (end -2.794 -3.81) (layer F.Cu) (width 0.6))
  (fp_line (start -2.794 -3.81) (end -2.794 -2.032) (layer F.Cu) (width 0.6))
  (fp_line (start -2.794 -2.032) (end -7.62 -2.032) (layer F.Cu) (width 0.6))
  (fp_line (start -7.62 -2.032) (end -7.62 -2.54) (layer F.Cu) (width 0.6))
  (fp_line (start -7.62 -2.54) (end -2.794 -2.54) (layer F.Cu) (width 0.6))
  (fp_line (start -2.794 -2.54) (end -2.794 -3.048) (layer F.Cu) (width 0.6))
  (fp_line (start -2.794 -3.048) (end -7.366 -3.048) (layer F.Cu) (width 0.6))
  (fp_line (start -7.874 -5.334) (end 7.874 -5.334) (layer F.Cu) (width 0.6))
  (fp_line (start 8.128 -5.334) (end -8.128 -5.334) (layer F.Cu) (width 0.15))
  (fp_line (start -8.128 -5.334) (end -8.128 -5.588) (layer F.Cu) (width 0.15))
  (fp_line (start -8.128 -5.588) (end 8.128 -5.588) (layer F.Cu) (width 0.15))
  (fp_line (start 8.128 -5.588) (end 8.128 -5.334) (layer F.Cu) (width 0.15))
  (fp_line (start 2.286 0.762) (end 2.54 0.762) (layer F.Cu) (width 0.6))
  (fp_line (start 7.874 1.778) (end 7.874 5.588) (layer F.Cu) (width 0.6))
  (fp_line (start 7.874 5.588) (end -8.128 5.588) (layer F.Cu) (width 0.6))
  (fp_line (start -8.128 5.588) (end -8.128 4.572) (layer F.Cu) (width 0.6))
  (fp_line (start -8.128 4.572) (end -2.54 4.572) (layer F.Cu) (width 0.6))
  (fp_line (start -2.54 -0.254) (end 2.286 -0.254) (layer F.Cu) (width 0.6))
  (fp_line (start 7.366 2.286) (end 7.366 5.08) (layer F.Cu) (width 0.6))
  (fp_line (start 7.366 5.08) (end -7.62 5.08) (layer F.Cu) (width 0.6))
  (fp_line (start -7.62 5.08) (end -2.032 5.08) (layer F.Cu) (width 0.6))
  (fp_line (start 6.858 2.794) (end 6.858 4.572) (layer F.Cu) (width 0.6))
  (fp_line (start 6.858 4.572) (end -1.524 4.572) (layer F.Cu) (width 0.6))
  (fp_line (start 6.35 3.048) (end 6.35 4.064) (layer F.Cu) (width 0.6))
  (fp_line (start 6.35 4.064) (end -1.016 4.064) (layer F.Cu) (width 0.6))
  (fp_line (start 5.842 3.302) (end 5.842 3.556) (layer F.Cu) (width 0.6))
  (fp_line (start 5.842 3.556) (end -0.508 3.556) (layer F.Cu) (width 0.6))
  (fp_line (start 2.54 0.254) (end 2.794 0) (layer F.Cu) (width 0.15))
  (fp_line (start 2.794 0) (end 2.794 1.524) (layer F.Cu) (width 0.15))
  (fp_line (start 2.794 1.524) (end 8.128 1.524) (layer F.Cu) (width 0.15))
  (fp_line (start 8.128 1.524) (end 8.128 5.842) (layer F.Cu) (width 0.15))
  (fp_line (start 8.128 5.842) (end -8.382 5.842) (layer F.Cu) (width 0.15))
  (fp_line (start -8.382 5.842) (end -8.382 4.318) (layer F.Cu) (width 0.15))
  (fp_line (start -8.382 4.318) (end -2.794 4.318) (layer F.Cu) (width 0.15))
  (fp_line (start -2.794 4.318) (end -2.794 -0.508) (layer F.Cu) (width 0.15))
  (fp_line (start 2.286 -4.064) (end -7.62 -4.064) (layer F.Cu) (width 0.6))
  (fp_line (start -7.62 -4.064) (end -7.62 -3.302) (layer F.Cu) (width 0.6))
  (fp_line (start -7.62 -3.302) (end -7.366 -3.556) (layer F.Cu) (width 0.6))
  (fp_line (start -7.366 -3.556) (end 2.54 -3.556) (layer F.Cu) (width 0.6))
  (fp_line (start -7.62 -3.048) (end -7.62 -2.54) (layer F.Cu) (width 0.6))
  (fp_line (start -1.016 -4.318) (end 2.286 -4.318) (layer F.Cu) (width 0.6))
  (fp_line (start -7.874 -5.08) (end 7.874 -5.08) (layer F.Cu) (width 0.6))
  (fp_line (start 7.874 -5.08) (end 7.874 -4.318) (layer F.Cu) (width 0.6))
  (fp_line (start 7.874 -4.318) (end 2.54 -4.318) (layer F.Cu) (width 0.6))
  (fp_line (start 2.54 -1.016) (end -2.54 -1.016) (layer F.Cu) (width 0.6))
  (fp_line (start -7.874 -2.032) (end -7.874 -4.572) (layer F.Cu) (width 0.6))
  (fp_line (start -7.874 -4.572) (end 7.62 -4.572) (layer F.Cu) (width 0.6))
  (fp_line (start -2.794 0) (end -2.794 -1.778) (layer F.Cu) (width 0.15))
  (fp_line (start -2.794 -1.778) (end -8.128 -1.778) (layer F.Cu) (width 0.15))
  (fp_line (start -8.128 -1.778) (end -8.128 -4.826) (layer F.Cu) (width 0.15))
  (fp_line (start -8.128 -4.826) (end -8.128 -5.334) (layer F.Cu) (width 0.15))
  (fp_line (start -8.128 -5.334) (end 8.128 -5.334) (layer F.Cu) (width 0.15))
  (fp_line (start 8.128 -5.334) (end 8.128 -4.064) (layer F.Cu) (width 0.15))
  (fp_line (start 8.128 -4.064) (end 2.794 -4.064) (layer F.Cu) (width 0.15))
  (fp_line (start 2.794 -4.064) (end 2.794 0) (layer F.Cu) (width 0.15))
  (fp_line (start 2.794 0) (end -2.794 0) (layer F.Cu) (width 0.15))
  (fp_text user %R (at 0 -2.54) (layer F.Fab)
    (effects (font (size 1 1) (thickness 0.15)))
  )
  (fp_line (start -2.54 0) (end -1.27 0) (layer F.Fab) (width 0.1))
  (fp_line (start -1.27 -1.27) (end -1.27 1.27) (layer F.Fab) (width 0.1))
  (fp_line (start 1.27 0) (end 2.54 0) (layer F.Fab) (width 0.1))
  (fp_line (start 1.27 1.27) (end 1.27 0) (layer F.Fab) (width 0.1))
  (fp_line (start -1.27 0) (end 1.27 1.27) (layer F.Fab) (width 0.1))
  (fp_line (start 1.27 -1.27) (end 1.27 1.27) (layer F.Fab) (width 0.1))
  (fp_line (start -1.27 0) (end 1.27 -1.27) (layer F.Fab) (width 0.1))
  (fp_arc (start 0 0) (end 4.59 0.45) (angle 131.3332206) (layer F.CrtYd) (width 0.05))
  (fp_arc (start 0 0) (end -4.59 -0.45) (angle 131.3332206) (layer F.CrtYd) (width 0.05))
  (fp_line (start 8.55 0.45) (end 4.59 0.45) (layer F.CrtYd) (width 0.05))
  (fp_line (start 8.55 -3.15) (end 8.55 0.45) (layer F.CrtYd) (width 0.05))
  (fp_line (start 3.37 -3.15) (end 8.55 -3.15) (layer F.CrtYd) (width 0.05))
  (fp_line (start -8.55 3.15) (end -3.37 3.15) (layer F.CrtYd) (width 0.05))
  (fp_line (start -8.55 -0.45) (end -8.55 3.15) (layer F.CrtYd) (width 0.05))
  (fp_line (start -4.59 -0.45) (end -8.55 -0.45) (layer F.CrtYd) (width 0.05))
  (fp_line (start -8.255 2.794) (end -3.429 2.794) (layer F.SilkS) (width 0.12))
  (fp_line (start -8.255 -0.127) (end -8.255 2.794) (layer F.SilkS) (width 0.12))
  (fp_line (start -4.445 -0.127) (end -8.255 -0.127) (layer F.SilkS) (width 0.12))
  (fp_circle (center 0 0) (end -4.3 0) (layer F.SilkS) (width 0.12))
  (fp_line (start 4.318 1.016) (end 5.334 1.016) (layer F.Fab) (width 0.1))
  (fp_line (start -5.334 -1.016) (end -4.318 -1.016) (layer F.Fab) (width 0.1))
  (fp_line (start 4.826 1.524) (end 4.826 0.508) (layer F.Fab) (width 0.1))
  (fp_circle (center 0 0) (end 4.025 0) (layer F.Fab) (width 0.1))
  (pad 2 smd rect (at 6.35 -1.35) (size 3.5 2.7) (layers F.Cu F.Paste F.Mask))
  (pad 1 smd rect (at -6.35 1.35) (size 3.5 2.7) (layers F.Cu F.Paste F.Mask))
  (pad 3 smd circle (at 0 0) (size 5.7 5.7) (layers F.Cu F.Paste F.Mask))
  (model ${KISYS3DMOD}/LEDs.3dshapes/LED_1W_3W_R8.wrl
    (at (xyz 0 0 0))
    (scale (xyz 1 1 1))
    (rotate (xyz 0 0 0))
  )
)
