(module nRF24L01_Breakout (layer F.Cu) (tedit 5DC27614)
  (descr "nRF24L01 breakout board")
  (tags "nRF24L01 adapter breakout")
  (fp_text reference REF** (at 0.508 -2.286) (layer F.SilkS)
    (effects (font (size 1 1) (thickness 0.15)))
  )
  (fp_text value nRF24L01_Breakout (at 8.89 8.636) (layer F.Fab)
    (effects (font (size 1 1) (thickness 0.15)))
  )
  (fp_line (start -1.524 -1.016) (end 17.018 -1.016) (layer F.Fab) (width 0.1))
  (fp_line (start 17.018 -1.016) (end 17.018 9.906) (layer F.Fab) (width 0.1))
  (fp_line (start 17.018 9.906) (end -1.524 9.906) (layer F.Fab) (width 0.1))
  (fp_line (start -1.524 9.906) (end -1.524 -1.016) (layer F.Fab) (width 0.1))
  (fp_line (start -1.27 -1.27) (end -1.27 -1.27) (layer F.Fab) (width 0.1))
  (fp_line (start -1.524 -1.27) (end 17.272 -1.27) (layer F.SilkS) (width 0.12))
  (fp_line (start 17.272 -1.27) (end 17.272 10.16) (layer F.SilkS) (width 0.12))
  (fp_line (start 17.272 10.16) (end -1.6 10.16) (layer F.SilkS) (width 0.12))
  (fp_line (start -1.6 10.16) (end -1.6 -1.27) (layer F.SilkS) (width 0.12))
  (fp_line (start 17.272 -1.27) (end -1.524 -1.27) (layer F.CrtYd) (width 0.05))
  (fp_line (start -1.524 -1.27) (end -1.524 10.16) (layer F.CrtYd) (width 0.05))
  (fp_line (start -1.524 10.16) (end 17.272 10.16) (layer F.CrtYd) (width 0.05))
  (fp_line (start 17.272 10.16) (end 17.272 -1.27) (layer F.CrtYd) (width 0.05))
  (fp_line (start 27.75 -2.25) (end 27.75 -2.25) (layer F.CrtYd) (width 0.05))
  (fp_text user %R (at 3.81 0) (layer F.Fab)
    (effects (font (size 1 1) (thickness 0.15)))
  )
  (pad 1 thru_hole rect (at 0 1.27) (size 2 0.9) (drill 0.762) (layers *.Cu *.Mask))
  (pad 2 thru_hole rect (at 0 0) (size 2 0.9) (drill 0.762) (layers *.Cu *.Mask))
  (pad 3 thru_hole rect (at 0 2.54) (size 2 0.9) (drill 0.762) (layers *.Cu *.Mask))
  (pad 4 thru_hole rect (at 0 3.81) (size 2 0.9) (drill 0.762) (layers *.Cu *.Mask))
  (pad 5 thru_hole rect (at 0 5.08) (size 2 0.9) (drill 0.762) (layers *.Cu *.Mask))
  (pad 6 thru_hole rect (at 0 6.35) (size 2 0.9) (drill 0.762) (layers *.Cu *.Mask))
  (pad 7 thru_hole rect (at 0 7.62) (size 2 0.9) (drill 0.762) (layers *.Cu *.Mask))
  (pad 8 thru_hole rect (at 0 8.89) (size 2 0.9) (drill 0.762) (layers *.Cu *.Mask))
  (model ${KISYS3DMOD}/RF_Module.3dshapes/nRF24L01_Breakout.wrl
    (at (xyz 0 0 0))
    (scale (xyz 1 1 1))
    (rotate (xyz 0 0 0))
  )
)
