(module Raspberry (layer F.Cu) (tedit 6087CE7C)
  (descr "Raspberry Pi 1,2,3")
  (tags "Raspberry, rpi")
  (fp_text reference REF** (at -5.8928 -31.3182) (layer F.SilkS)
    (effects (font (size 1 1) (thickness 0.15)))
  )
  (fp_text value rpi (at 0 26.9) (layer F.Fab)
    (effects (font (size 1 1) (thickness 0.15)))
  )
  (fp_line (start 3.480993 -29.547558) (end 3.480993 49.452442) (layer F.SilkS) (width 0.2))
  (fp_line (start -49.519007 -32.547558) (end 0.480993 -32.547558) (layer F.SilkS) (width 0.2))
  (fp_line (start -48.453566 39.451766) (end -48.453566 54.61) (layer F.SilkS) (width 0.2))
  (fp_line (start -32.294239 16.16872) (end -32.294239 18.715303) (layer F.SilkS) (width 0.2))
  (fp_line (start -49.519007 52.452442) (end 0.480993 52.452442) (layer F.SilkS) (width 0.2))
  (fp_line (start -10.3632 43.453538) (end -0.674815 43.453538) (layer F.SilkS) (width 0.2))
  (fp_line (start -36.084447 39.451766) (end -36.084447 54.61) (layer F.SilkS) (width 0.2))
  (fp_circle (center -49.019007 -29.047558) (end -47.419007 -29.047558) (layer F.SilkS) (width 0.2))
  (fp_line (start -33.173383 -27.790442) (end -15.864631 -27.790442) (layer F.SilkS) (width 0.2))
  (fp_line (start -48.453566 39.451766) (end -36.084447 39.451766) (layer F.SilkS) (width 0.2))
  (fp_line (start -52.519007 -29.547558) (end -52.519007 49.452442) (layer F.SilkS) (width 0.2))
  (fp_line (start -28.687229 43.453541) (end -18.350785 43.453541) (layer F.SilkS) (width 0.2))
  (fp_line (start -10.3632 54.61) (end -0.674815 54.61) (layer F.SilkS) (width 0.2))
  (fp_circle (center -0.019008 28.952442) (end 1.580992 28.952442) (layer F.SilkS) (width 0.2))
  (fp_line (start -15.864631 -30.304673) (end -15.864631 -27.790442) (layer F.SilkS) (width 0.2))
  (fp_line (start -33.173383 -30.304673) (end -15.864631 -30.304673) (layer F.SilkS) (width 0.2))
  (fp_line (start -28.687229 54.61) (end -18.350785 54.61) (layer F.SilkS) (width 0.2))
  (fp_circle (center -49.019007 28.952442) (end -47.419007 28.952442) (layer F.SilkS) (width 0.2))
  (fp_circle (center -0.019008 -29.047558) (end 1.580992 -29.047558) (layer F.SilkS) (width 0.2))
  (fp_line (start -33.173383 -30.304673) (end -33.173383 -27.790442) (layer F.SilkS) (width 0.2))
  (fp_line (start -48.453566 54.61) (end -36.084447 54.61) (layer F.SilkS) (width 0.2))
  (fp_line (start -50.726653 18.715303) (end -32.294239 18.715303) (layer F.SilkS) (width 0.2))
  (fp_line (start -0.674815 54.61) (end -0.674815 43.453538) (layer F.SilkS) (width 0.2))
  (fp_line (start -50.726653 16.16872) (end -32.294239 16.16872) (layer F.SilkS) (width 0.2))
  (fp_line (start -28.687229 54.61) (end -28.687229 43.453541) (layer F.SilkS) (width 0.2))
  (fp_line (start -50.726653 16.16872) (end -50.726653 18.715303) (layer F.SilkS) (width 0.2))
  (fp_line (start -18.350785 54.61) (end -18.350785 43.453541) (layer F.SilkS) (width 0.2))
  (fp_line (start -10.3632 54.61) (end -10.3632 43.453538) (layer F.SilkS) (width 0.2))
  (fp_line (start -2.54 -25.4) (end 1.54 -25.4) (layer F.Fab) (width 0.1))
  (fp_line (start 1.54 -25.4) (end 2.54 -24.4) (layer F.Fab) (width 0.1))
  (fp_line (start 2.54 -24.4) (end 2.54 25.4) (layer F.Fab) (width 0.1))
  (fp_line (start 2.54 25.4) (end -2.54 25.4) (layer F.Fab) (width 0.1))
  (fp_line (start -2.54 25.4) (end -2.54 -25.4) (layer F.Fab) (width 0.1))
  (fp_line (start -2.6 -25.46) (end 0 -25.46) (layer F.SilkS) (width 0.12))
  (fp_line (start -2.6 -25.46) (end -2.6 25.46) (layer F.SilkS) (width 0.12))
  (fp_line (start -2.6 25.46) (end 2.6 25.46) (layer F.SilkS) (width 0.12))
  (fp_line (start 2.6 -22.86) (end 2.6 25.46) (layer F.SilkS) (width 0.12))
  (fp_line (start 0 -22.86) (end 2.6 -22.86) (layer F.SilkS) (width 0.12))
  (fp_line (start 0 -25.46) (end 0 -22.86) (layer F.SilkS) (width 0.12))
  (fp_line (start 2.6 -25.46) (end 2.6 -24.13) (layer F.SilkS) (width 0.12))
  (fp_line (start 1.27 -25.46) (end 2.6 -25.46) (layer F.SilkS) (width 0.12))
  (fp_line (start -3.07 -25.93) (end 3.03 -25.93) (layer F.CrtYd) (width 0.05))
  (fp_line (start 3.03 -25.93) (end 3.03 25.87) (layer F.CrtYd) (width 0.05))
  (fp_line (start 3.03 25.87) (end -3.07 25.87) (layer F.CrtYd) (width 0.05))
  (fp_line (start -3.07 25.87) (end -3.07 -25.93) (layer F.CrtYd) (width 0.05))
  (fp_text user %R (at -2.54 0 90) (layer F.Fab)
    (effects (font (size 1 1) (thickness 0.15)))
  )
  (fp_arc (start -49.519006 -29.547558) (end -49.519006 -32.547558) (angle -90) (layer F.SilkS) (width 0.2))
  (fp_arc (start 0.480993 -29.547558) (end 3.480993 -29.547558) (angle -90) (layer F.SilkS) (width 0.2))
  (fp_arc (start -49.519006 49.452442) (end -52.519006 49.452442) (angle -90) (layer F.SilkS) (width 0.2))
  (fp_arc (start 0.480993 49.452442) (end 0.480993 52.452442) (angle -90) (layer F.SilkS) (width 0.2))
  (pad 1 thru_hole rect (at -1.27 -24.13) (size 1.7 1.7) (drill 1) (layers *.Cu *.Mask))
  (pad 2 thru_hole oval (at 1.27 -24.13) (size 1.7 1.7) (drill 1) (layers *.Cu *.Mask))
  (pad 3 thru_hole oval (at -1.27 -21.59) (size 1.7 1.7) (drill 1) (layers *.Cu *.Mask))
  (pad 4 thru_hole oval (at 1.27 -21.59) (size 1.7 1.7) (drill 1) (layers *.Cu *.Mask))
  (pad 5 thru_hole oval (at -1.27 -19.05) (size 1.7 1.7) (drill 1) (layers *.Cu *.Mask))
  (pad 6 thru_hole oval (at 1.27 -19.05) (size 1.7 1.7) (drill 1) (layers *.Cu *.Mask))
  (pad 7 thru_hole oval (at -1.27 -16.51) (size 1.7 1.7) (drill 1) (layers *.Cu *.Mask))
  (pad 8 thru_hole oval (at 1.27 -16.51) (size 1.7 1.7) (drill 1) (layers *.Cu *.Mask))
  (pad 9 thru_hole oval (at -1.27 -13.97) (size 1.7 1.7) (drill 1) (layers *.Cu *.Mask))
  (pad 10 thru_hole oval (at 1.27 -13.97) (size 1.7 1.7) (drill 1) (layers *.Cu *.Mask))
  (pad 11 thru_hole oval (at -1.27 -11.43) (size 1.7 1.7) (drill 1) (layers *.Cu *.Mask))
  (pad 12 thru_hole oval (at 1.27 -11.43) (size 1.7 1.7) (drill 1) (layers *.Cu *.Mask))
  (pad 13 thru_hole oval (at -1.27 -8.89) (size 1.7 1.7) (drill 1) (layers *.Cu *.Mask))
  (pad 14 thru_hole oval (at 1.27 -8.89) (size 1.7 1.7) (drill 1) (layers *.Cu *.Mask))
  (pad 15 thru_hole oval (at -1.27 -6.35) (size 1.7 1.7) (drill 1) (layers *.Cu *.Mask))
  (pad 16 thru_hole oval (at 1.27 -6.35) (size 1.7 1.7) (drill 1) (layers *.Cu *.Mask))
  (pad 17 thru_hole oval (at -1.27 -3.81) (size 1.7 1.7) (drill 1) (layers *.Cu *.Mask))
  (pad 18 thru_hole oval (at 1.27 -3.81) (size 1.7 1.7) (drill 1) (layers *.Cu *.Mask))
  (pad 19 thru_hole oval (at -1.27 -1.27) (size 1.7 1.7) (drill 1) (layers *.Cu *.Mask))
  (pad 20 thru_hole oval (at 1.27 -1.27) (size 1.7 1.7) (drill 1) (layers *.Cu *.Mask))
  (pad 21 thru_hole oval (at -1.27 1.27) (size 1.7 1.7) (drill 1) (layers *.Cu *.Mask))
  (pad 22 thru_hole oval (at 1.27 1.27) (size 1.7 1.7) (drill 1) (layers *.Cu *.Mask))
  (pad 23 thru_hole oval (at -1.27 3.81) (size 1.7 1.7) (drill 1) (layers *.Cu *.Mask))
  (pad 24 thru_hole oval (at 1.27 3.81) (size 1.7 1.7) (drill 1) (layers *.Cu *.Mask))
  (pad 25 thru_hole oval (at -1.27 6.35) (size 1.7 1.7) (drill 1) (layers *.Cu *.Mask))
  (pad 26 thru_hole oval (at 1.27 6.35) (size 1.7 1.7) (drill 1) (layers *.Cu *.Mask))
  (pad 27 thru_hole oval (at -1.27 8.89) (size 1.7 1.7) (drill 1) (layers *.Cu *.Mask))
  (pad 28 thru_hole oval (at 1.27 8.89) (size 1.7 1.7) (drill 1) (layers *.Cu *.Mask))
  (pad 29 thru_hole oval (at -1.27 11.43) (size 1.7 1.7) (drill 1) (layers *.Cu *.Mask))
  (pad 30 thru_hole oval (at 1.27 11.43) (size 1.7 1.7) (drill 1) (layers *.Cu *.Mask))
  (pad 31 thru_hole oval (at -1.27 13.97) (size 1.7 1.7) (drill 1) (layers *.Cu *.Mask))
  (pad 32 thru_hole oval (at 1.27 13.97) (size 1.7 1.7) (drill 1) (layers *.Cu *.Mask))
  (pad 33 thru_hole oval (at -1.27 16.51) (size 1.7 1.7) (drill 1) (layers *.Cu *.Mask))
  (pad 34 thru_hole oval (at 1.27 16.51) (size 1.7 1.7) (drill 1) (layers *.Cu *.Mask))
  (pad 35 thru_hole oval (at -1.27 19.05) (size 1.7 1.7) (drill 1) (layers *.Cu *.Mask))
  (pad 36 thru_hole oval (at 1.27 19.05) (size 1.7 1.7) (drill 1) (layers *.Cu *.Mask))
  (pad 37 thru_hole oval (at -1.27 21.59) (size 1.7 1.7) (drill 1) (layers *.Cu *.Mask))
  (pad 38 thru_hole oval (at 1.27 21.59) (size 1.7 1.7) (drill 1) (layers *.Cu *.Mask))
  (pad 39 thru_hole oval (at -1.27 24.13) (size 1.7 1.7) (drill 1) (layers *.Cu *.Mask))
  (pad 40 thru_hole oval (at 1.27 24.13) (size 1.7 1.7) (drill 1) (layers *.Cu *.Mask))
  (pad 41 thru_hole circle (at 0 -29) (size 6 6) (drill 3.2) (layers *.Cu *.Mask))
  (pad 42 thru_hole circle (at -49 -29) (size 6 6) (drill 3.2) (layers *.Cu *.Mask))
  (pad 43 thru_hole circle (at -49 29) (size 6 6) (drill 3.2) (layers *.Cu *.Mask))
  (pad 44 thru_hole circle (at 0 29) (size 6 6) (drill 3.2) (layers *.Cu *.Mask))
  (model ${KISYS3DMOD}/Connector_PinSocket_2.54mm.3dshapes/PinSocket_2x20_P2.54mm_Vertical.wrl
    (at (xyz 0 0 0))
    (scale (xyz 1 1 1))
    (rotate (xyz 0 0 0))
  )
)
