(module TRACO_THN_15WI (layer F.Cu) (tedit 5DB929BF)
  (fp_text reference TRACO_THN_15WI (at -10.16 -14.605) (layer F.SilkS)
    (effects (font (size 1 1) (thickness 0.05)))
  )
  (fp_text value VAL** (at 0 0) (layer F.SilkS)
    (effects (font (size 1 0.9) (thickness 0.05)))
  )
  (fp_line (start -12.7 12.7) (end -12.7 -12.7) (layer F.SilkS) (width 0.127))
  (fp_line (start -12.7 -12.7) (end 10.16 -12.7) (layer F.SilkS) (width 0.127))
  (fp_line (start 10.16 -12.7) (end 12.7 -12.7) (layer F.SilkS) (width 0.127))
  (fp_line (start 12.7 -12.7) (end 12.7 -10.16) (layer F.SilkS) (width 0.127))
  (fp_line (start 12.7 -10.16) (end 12.7 12.7) (layer F.SilkS) (width 0.127))
  (fp_line (start 12.7 12.7) (end -12.7 12.7) (layer F.SilkS) (width 0.127))
  (fp_line (start 10.16 -12.7) (end 12.7 -10.16) (layer F.SilkS) (width 0.127))
  (pad GND thru_hole circle (at 2.54 -10.16) (size 2.032 2.032) (drill 1) (layers *.Cu *.Mask))
  (pad VCC thru_hole circle (at -2.54 -10.16) (size 2.032 2.032) (drill 1) (layers *.Cu *.Mask))
  (pad ON_OFF thru_hole circle (at 10.16 -10.16) (size 2.032 2.032) (drill 1) (layers *.Cu *.Mask))
  (pad VOUT thru_hole circle (at -10.16 10.16) (size 2.032 2.032) (drill 1) (layers *.Cu *.Mask))
  (pad TRIM thru_hole circle (at 0 10.16) (size 2.032 2.032) (drill 1) (layers *.Cu *.Mask))
  (pad DGND thru_hole circle (at 10.16 10.16) (size 2.032 2.032) (drill 1) (layers *.Cu *.Mask))
)
